<?xml version="1.0" encoding="utf-8"?>
<!-- Generator: Adobe Illustrator 24.2.0, SVG Export Plug-In . SVG Version: 6.00 Build 0)  -->
<svg version="1.1" id="Capa_1" xmlns="http://www.w3.org/2000/svg" xmlns:xlink="http://www.w3.org/1999/xlink" x="0px" y="0px"
	 viewBox="0 0 1920 1080" style="enable-background:new 0 0 1920 1080;" xml:space="preserve">
<style type="text/css">
	.st0{display:none;fill:#FFFFFF;}
	.st1{display:none;}
	.st2{fill:#FFFFFF;}
</style>
<g>
	<path class="st0" d="M153.81,671.12c0-92.63,0-185.26,0-277.9c541.42,0,1082.84,0,1624.26,0c0,92.63,0,185.26,0,277.9
		C1236.65,671.12,695.23,671.12,153.81,671.12z M1657.18,502.39c0.42-0.15,0.84-0.3,1.26-0.45c1.42,1.88,2.87,3.73,4.25,5.64
		c25.24,34.92,50.46,69.86,75.75,104.74c1.33,1.84,3.2,4.57,4.9,4.64c11.08,0.42,22.18,0.22,33.3,0.22c0-55.95,0-111.14,0-166.51
		c-11.38,0-22.42,0-34.33,0c0,38.14,0,75.83,0,115.16c-2.31-3.03-3.53-4.56-4.68-6.14c-25.28-34.89-50.54-69.8-75.87-104.65
		c-1.33-1.83-3.27-4.48-5.01-4.55c-11.08-0.41-22.18-0.21-33.52-0.21c0,56.03,0,111.23,0,166.58c11.41,0,22.47,0,33.95,0
		C1657.18,578.46,1657.18,540.42,1657.18,502.39z M914.09,446.41c-5.75,0.84-14.21,1.28-22.24,3.37
		c-32.46,8.46-54.92,28.28-63.22,61.17c-8.45,33.46-0.87,63.5,25.32,87.08c22.54,20.3,49.76,25.82,79.18,21.67
		c63.12-8.89,90.59-70.75,67.86-121.91C984.99,461.79,954.48,447.77,914.09,446.41z M1374.8,616.86c43.57,0,86.75,0,130.15,0
		c0-10.08,0-19.79,0-30.17c-31.9,0-63.55,0-95.53,0c0-13.51,0-26.36,0-39.99c28.53,0,56.72,0,84.96,0c0-10.06,0-19.31,0-29.22
		c-28.68,0-56.9,0-84.92,0c0-12.55,0-24.44,0-36.91c32.02,0,63.65,0,95.42,0c0-10.28,0-19.96,0-29.91c-43.49,0-86.65,0-130.09,0
		C1374.8,506.13,1374.8,561.16,1374.8,616.86z M716.37,617.22c0-28.18,0-55.62,0-83.2c-11.54,0-22.74,0-34.41,0
		c0,5.9,0.38,11.32-0.07,16.66c-1.35,16.13-6.01,30.85-23.26,36.27c-17.93,5.64-35.95,4.79-52.75-4.55
		c-19.91-11.08-28.91-34.01-24.58-61.38c3.65-23.08,19.33-39.15,42.27-42.78c22.64-3.58,43.34-0.1,59.79,18.16
		c8.61-6.33,17.02-12.51,25.67-18.87c-1.14-1.34-1.74-2.12-2.41-2.82c-22.62-23.2-50.59-30.62-81.99-27.53
		c-51.63,5.08-86.81,51.79-77.46,102.63c6.74,36.69,36.34,64.9,73.53,69.63c22.54,2.87,44.55,3.13,60.75-17.73
		c2.36,4.34,4.3,8.45,6.79,12.21c1,1.51,3.16,3.07,4.86,3.14C700.64,617.41,708.22,617.22,716.37,617.22z M1116.03,597.16
		c5.6,3.95,10.73,8.46,16.6,11.58c22.1,11.75,46,13.64,70.41,11.44c14.26-1.28,27.93-4.87,39.89-13.17
		c16.3-11.31,22.7-27.27,20.9-46.65c-1.75-18.82-13.34-29.76-30.32-35.43c-9.22-3.08-18.84-4.98-28.34-7.14
		c-12.59-2.87-25.38-4.96-37.79-8.41c-6.95-1.93-11.29-7.4-10.93-15.35c0.32-6.84,4.51-11.67,12.46-14.32
		c1.88-0.63,3.84-1.12,5.79-1.45c21.72-3.62,42.12-0.99,60.14,13.02c7.63-8,15.14-15.88,22.74-23.85c-0.33-0.28-1.06-0.95-1.84-1.55
		c-19.04-14.74-41.08-19.81-64.58-19.47c-17.33,0.25-34.26,2.85-49.11,12.75c-15,10-21.11,24.36-19.94,42.12
		c1.21,18.23,10.91,30.25,27.81,35.85c11.09,3.67,22.75,5.66,34.19,8.25c11.43,2.59,23.21,4.08,34.28,7.74
		c10.32,3.4,13.92,13.57,9.87,22.88c-2.7,6.2-8.02,9.36-14.09,11.14c-13.23,3.87-26.71,4.4-40.27,1.88
		c-12.93-2.4-24.67-7.48-33.61-15.57c-7.69,7.21-14.98,14.03-22.24,20.87C1117.52,594.82,1117.16,595.56,1116.03,597.16z
		 M442.78,559.67c15.41,0.09,27.85-12.04,28.11-27.41c0.26-15.25-12.09-27.78-27.53-27.91c-15.48-0.14-27.88,11.89-28.18,27.32
		C414.9,546.67,427.62,559.58,442.78,559.67z M357.34,473.5c0.07,13.3,10.64,23.88,23.9,23.92c13.36,0.03,24.23-10.93,24.15-24.34
		c-0.08-13.37-11.02-23.97-24.56-23.79C367.56,449.46,357.28,460.06,357.34,473.5z M357.34,590.56
		c0.02,13.27,10.54,23.99,23.73,24.16c13.16,0.18,24.31-10.95,24.31-24.26c0-13.35-11.08-24.29-24.39-24.09
		C367.76,566.57,357.32,577.24,357.34,590.56z M343.09,416.29c-0.02-12.41-9.53-21.88-21.88-21.8
		c-11.95,0.08-21.41,9.63-21.49,21.67c-0.08,12.34,9.49,22.15,21.66,22.21C333.53,438.43,343.11,428.68,343.09,416.29z
		 M343.09,647.83c0.06-12.59-9.17-22.1-21.5-22.16c-12.29-0.06-21.87,9.54-21.86,21.9c0.01,12.22,9.88,22.16,21.89,22.03
		C333.49,669.47,343.04,659.8,343.09,647.83z M313.68,491.54c10.01-0.05,18.35-8.22,18.46-18.08c0.12-9.88-8.84-18.85-18.73-18.74
		c-10.21,0.11-18.37,8.63-18.22,19.01C295.35,483.86,303.36,491.59,313.68,491.54z M235.33,647.59c0.01,10.01,8.17,18.3,18.16,18.45
		c10,0.15,18.86-8.6,18.81-18.58c-0.05-9.81-8.47-18.24-18.34-18.35C243.63,628.99,235.32,637.23,235.33,647.59z M235.33,416.59
		c0.08,9.93,8.42,18.33,18.28,18.4c9.87,0.07,18.81-8.91,18.68-18.79c-0.13-10.09-8.87-18.44-19.07-18.23
		C243.2,398.19,235.25,406.46,235.33,416.59z M313.56,608.84c9.96-0.02,18.39-8.22,18.58-18.09c0.19-9.84-8.73-18.93-18.59-18.93
		c-10.02,0-18.44,8.69-18.34,18.94C295.3,600.84,303.43,608.85,313.56,608.84z M393.5,532.2c0.07-10.43-8.12-18.93-18.19-18.9
		c-9.8,0.03-18.17,8.4-18.34,18.36c-0.19,10.41,7.91,18.58,18.41,18.57C385.72,550.23,393.43,542.56,393.5,532.2z M203.8,429.16
		c7.23,0.08,12.96-5.57,12.97-12.78c0.01-6.95-5.42-12.48-12.41-12.64c-7.23-0.17-13.19,5.35-13.38,12.37
		C190.79,422.97,196.81,429.09,203.8,429.16z M263.54,486.09c7.12,0.15,13-5.62,13.02-12.76c0.01-6.94-5.39-12.65-12.26-12.97
		c-6.78-0.32-13.18,5.65-13.45,12.55C250.58,479.84,256.45,485.94,263.54,486.09z M264,603.09c7.31-0.08,12.78-5.74,12.56-13
		c-0.21-7.03-5.69-12.4-12.68-12.43c-6.98-0.04-13.05,5.96-13.02,12.88C250.87,597.57,256.73,603.17,264,603.09z M204.04,660.3
		c7.19-0.04,12.86-5.83,12.72-13.01c-0.13-6.92-5.73-12.46-12.65-12.54c-6.99-0.08-13.13,5.89-13.14,12.77
		C190.97,654.48,196.97,660.34,204.04,660.3z M313.02,531.68c-0.1,7.46,5.2,13.03,12.45,13.09c7.26,0.06,12.88-5.54,12.88-12.82
		c0-7.11-5.9-13-12.92-12.9C318.55,519.14,313.11,524.67,313.02,531.68z M223.86,465.06c-4.64-0.02-8.46,3.69-8.47,8.22
		c-0.01,4.46,3.93,8.45,8.38,8.49c4.53,0.04,8.27-3.74,8.31-8.4C232.1,468.53,228.7,465.08,223.86,465.06z M293.98,531.97
		c0-4.77-3.47-8.19-8.35-8.2c-4.77-0.02-8.38,3.54-8.36,8.23c0.02,4.54,3.91,8.46,8.37,8.44
		C290.1,540.4,293.97,536.47,293.98,531.97z M232.06,590.7c0.12-4.82-3.21-8.3-8.04-8.38c-4.68-0.08-8.53,3.46-8.65,7.96
		c-0.12,4.34,3.87,8.54,8.23,8.68C228.04,599.11,231.95,595.29,232.06,590.7z M172.28,416.67c0.15-4.57-3.49-8.54-7.99-8.72
		c-4.48-0.18-8.42,3.55-8.59,8.12c-0.17,4.73,3.25,8.35,7.99,8.48C168.55,424.67,172.13,421.39,172.28,416.67z M163.98,639.06
		c-4.43,0-8.29,3.96-8.29,8.49c0,4.71,3.58,8.27,8.31,8.26c4.69-0.01,8.29-3.61,8.26-8.29
		C172.25,642.96,168.42,639.05,163.98,639.06z M253.89,539.08c2.26-3.29,4.72-5.31,4.55-7.06c-0.18-1.8-2.95-3.33-4.58-4.98
		c-1.74,1.74-4.5,3.29-4.89,5.3C248.67,533.82,251.44,535.92,253.89,539.08z"/>
	<path class="st1" d="M1657.18,502.39c0,38.04,0,76.07,0,114.47c-11.48,0-22.54,0-33.95,0c0-55.36,0-110.55,0-166.58
		c11.33,0,22.44-0.2,33.52,0.21c1.74,0.07,3.68,2.72,5.01,4.55c25.34,34.85,50.59,69.76,75.87,104.65c1.15,1.58,2.36,3.11,4.68,6.14
		c0-39.33,0-77.02,0-115.16c11.91,0,22.95,0,34.33,0c0,55.37,0,110.56,0,166.51c-11.11,0-22.22,0.2-33.3-0.22
		c-1.7-0.06-3.57-2.8-4.9-4.64c-25.29-34.89-50.51-69.82-75.75-104.74c-1.38-1.91-2.83-3.76-4.25-5.64
		C1658.01,502.09,1657.59,502.24,1657.18,502.39z"/>
	<path class="st1" d="M914.09,446.41c40.38,1.36,70.9,15.39,86.89,51.38c22.73,51.16-4.74,113.02-67.86,121.91
		c-29.42,4.15-56.64-1.37-79.18-21.67c-26.19-23.58-33.77-53.62-25.32-87.08c8.31-32.88,30.77-52.71,63.22-61.17
		C899.88,447.68,908.34,447.24,914.09,446.41z M921.92,477.04c-26.83-0.1-44.36,7.84-53.37,23.6c-11.6,20.29-12.16,41.67-1.68,62.44
		c9.97,19.74,28.09,26.96,49.11,27.3c19.66,0.32,37.64-4.87,48.81-22.47c12.89-20.3,13.1-42.12,2.66-63.37
		C957.42,484.13,938.8,477.54,921.92,477.04z"/>
	<path class="st1" d="M1374.8,616.86c0-55.69,0-110.73,0-166.21c43.44,0,86.59,0,130.09,0c0,9.95,0,19.63,0,29.91
		c-31.77,0-63.4,0-95.42,0c0,12.47,0,24.36,0,36.91c28.02,0,56.24,0,84.92,0c0,9.91,0,19.16,0,29.22c-28.24,0-56.43,0-84.96,0
		c0,13.64,0,26.48,0,39.99c31.99,0,63.63,0,95.53,0c0,10.38,0,20.09,0,30.17C1461.56,616.86,1418.37,616.86,1374.8,616.86z"/>
	<path class="st1" d="M716.37,617.22c-8.16,0-15.74,0.19-23.29-0.15c-1.7-0.08-3.86-1.64-4.86-3.14c-2.49-3.76-4.43-7.87-6.79-12.21
		c-16.19,20.86-38.2,20.6-60.75,17.73c-37.18-4.73-66.78-32.94-73.53-69.63c-9.35-50.85,25.84-97.56,77.46-102.63
		c31.39-3.09,59.37,4.33,81.99,27.53c0.68,0.7,1.27,1.48,2.41,2.82c-8.64,6.35-17.05,12.53-25.67,18.87
		c-16.45-18.26-37.15-21.74-59.79-18.16c-22.94,3.63-38.62,19.7-42.27,42.78c-4.33,27.36,4.67,50.3,24.58,61.38
		c16.8,9.35,34.82,10.19,52.75,4.55c17.25-5.43,21.91-20.14,23.26-36.27c0.45-5.34,0.07-10.76,0.07-16.66c11.67,0,22.87,0,34.41,0
		C716.37,561.6,716.37,589.04,716.37,617.22z"/>
	<path class="st1" d="M1116.03,597.16c1.13-1.6,1.49-2.34,2.04-2.86c7.26-6.84,14.54-13.66,22.24-20.87
		c8.94,8.09,20.68,13.16,33.61,15.57c13.56,2.52,27.04,1.99,40.27-1.88c6.07-1.77,11.39-4.94,14.09-11.14
		c4.05-9.3,0.45-19.47-9.87-22.88c-11.07-3.65-22.85-5.15-34.28-7.74c-11.44-2.59-23.1-4.58-34.19-8.25
		c-16.9-5.59-26.6-17.62-27.81-35.85c-1.18-17.76,4.93-32.11,19.94-42.12c14.85-9.9,31.78-12.5,49.11-12.75
		c23.51-0.34,45.55,4.73,64.58,19.47c0.78,0.6,1.51,1.27,1.84,1.55c-7.59,7.97-15.11,15.85-22.74,23.85
		c-18.02-14.01-38.42-16.64-60.14-13.02c-1.96,0.33-3.91,0.82-5.79,1.45c-7.94,2.65-12.14,7.48-12.46,14.32
		c-0.37,7.95,3.97,13.41,10.93,15.35c12.42,3.46,25.21,5.54,37.79,8.41c9.5,2.17,19.13,4.06,28.34,7.14
		c16.98,5.67,28.57,16.61,30.32,35.43c1.8,19.39-4.6,35.34-20.9,46.65c-11.96,8.3-25.63,11.89-39.89,13.17
		c-24.41,2.2-48.31,0.3-70.41-11.44C1126.76,605.61,1121.63,601.11,1116.03,597.16z"/>
	<path class="st0" d="M921.92,477.04c16.89,0.5,35.5,7.09,45.53,27.5c10.44,21.25,10.23,43.07-2.66,63.37
		c-11.17,17.59-29.15,22.79-48.81,22.47c-21.02-0.34-39.15-7.56-49.11-27.3c-10.48-20.77-9.92-42.14,1.68-62.44
		C877.56,484.88,895.09,476.94,921.92,477.04z"/>
</g>
<path class="st2" d="M1249.35,593.77c-40.27-0.23-74.08-34.54-73.31-74.39c0.8-41,33.74-72.95,74.86-72.58
	c41.01,0.37,73.81,33.64,73.12,74.15C1323.32,561.78,1290.28,594.01,1249.35,593.77z"/>
<path class="st2" d="M1022.38,364.87c-0.18-35.71,27.14-63.87,62.4-64.33c35.96-0.47,65.01,27.67,65.23,63.2
	c0.22,35.64-28.67,64.76-64.15,64.67C1050.66,428.31,1022.56,400.19,1022.38,364.87z"/>
<path class="st2" d="M1022.38,675.82c-0.05-35.38,27.67-63.73,62.84-64.25c35.36-0.53,64.79,28.54,64.79,64
	c0,35.35-29.64,64.91-64.59,64.44C1050.38,739.54,1022.44,711.09,1022.38,675.82z"/>
<path class="st2" d="M984.53,212.87c0.05,32.92-25.42,58.83-57.66,58.68c-32.32-0.16-57.74-26.22-57.53-59
	c0.2-32,25.34-57.35,57.08-57.57C959.22,154.74,984.48,179.92,984.53,212.87z"/>
<path class="st2" d="M984.52,827.95c-0.15,31.8-25.5,57.51-57.05,57.85c-31.89,0.34-58.13-26.06-58.15-58.53
	c-0.02-32.85,25.43-58.34,58.08-58.19C960.15,769.24,984.68,794.52,984.52,827.95z"/>
<path class="st2" d="M906.39,412.77c-27.41,0.14-48.69-20.39-49.09-47.33c-0.41-27.58,21.27-50.2,48.39-50.5
	c26.25-0.29,50.05,23.53,49.75,49.79C955.13,390.93,932.97,412.64,906.39,412.77z"/>
<path class="st2" d="M698.25,827.33c-0.02-27.51,22.05-49.4,49.49-49.09c26.2,0.3,48.57,22.68,48.71,48.75
	c0.14,26.51-23.4,49.76-49.97,49.36C719.94,875.95,698.27,853.92,698.25,827.33z"/>
<path class="st2" d="M698.25,213.67c-0.22-26.92,20.9-48.88,47.54-49.44c27.1-0.57,50.32,21.63,50.66,48.42
	c0.33,26.24-23.41,50.1-49.63,49.9C720.62,262.36,698.46,240.06,698.25,213.67z"/>
<path class="st2" d="M906.06,724.38c-26.9,0.04-48.5-21.24-48.76-48.04c-0.26-27.23,22.11-50.33,48.73-50.31
	c26.19,0.01,49.9,24.16,49.39,50.29C954.92,702.55,932.53,724.34,906.06,724.38z"/>
<path class="st2" d="M1118.43,520.79c-0.17,27.51-20.66,47.89-48.16,47.92c-27.89,0.03-49.4-21.67-48.9-49.33
	c0.47-26.47,22.69-48.71,48.73-48.78C1096.86,470.52,1118.6,493.09,1118.43,520.79z"/>
<path class="st2" d="M614.5,247.08c-18.57-0.2-34.56-16.47-34.07-34.67c0.51-18.65,16.35-33.29,35.55-32.86
	c18.55,0.42,32.98,15.12,32.96,33.58C648.93,232.29,633.72,247.28,614.5,247.08z"/>
<path class="st2" d="M773.2,398.29c-18.84-0.39-34.45-16.6-33.72-35c0.72-18.34,17.72-34.19,35.73-33.35
	c18.26,0.86,32.6,16.03,32.57,34.46C807.74,383.36,792.11,398.68,773.2,398.29z"/>
<path class="st2" d="M774.4,709.11c-19.3,0.21-34.87-14.65-34.93-33.34c-0.07-18.38,16.04-34.31,34.6-34.21
	c18.57,0.09,33.12,14.36,33.69,33.03C808.35,693.87,793.83,708.9,774.4,709.11z"/>
<path class="st2" d="M615.13,861.1c-18.8,0.1-34.73-15.48-34.71-33.94c0.01-18.29,16.33-34.14,34.91-33.92
	c18.4,0.21,33.26,14.95,33.61,33.32C649.3,845.6,634.24,861,615.13,861.1z"/>
<path class="st2" d="M904.64,519.41c0.24-18.61,14.67-33.3,32.96-33.55c18.65-0.25,34.31,15.39,34.32,34.28
	c0.01,19.35-14.93,34.22-34.21,34.05C918.45,554.02,904.39,539.23,904.64,519.41z"/>
<path class="st2" d="M667.77,342.43c12.86,0.06,21.91,9.22,21.82,22.06c-0.09,12.38-10.02,22.42-22.06,22.32
	c-11.83-0.1-22.29-10.7-22.26-22.55C645.29,352.23,655.45,342.38,667.77,342.43z"/>
<path class="st2" d="M854.05,520.17c-0.01,11.96-10.31,22.41-22.15,22.48c-11.86,0.07-22.2-10.36-22.24-22.41
	c-0.04-12.46,9.55-21.89,22.22-21.85C844.83,498.43,854.06,507.49,854.05,520.17z"/>
<path class="st2" d="M689.57,676.21c-0.31,12.19-10.69,22.33-22.47,21.95c-11.59-0.38-22.17-11.54-21.87-23.06
	c0.32-11.95,10.56-21.37,22.99-21.15C681.04,654.17,689.89,663.4,689.57,676.21z"/>
<path class="st2" d="M530.75,213.88c-0.4,12.54-9.91,21.26-22.81,20.93c-12.61-0.32-21.68-9.95-21.23-22.52
	c0.44-12.14,10.92-22.06,22.81-21.58C521.49,191.2,531.14,201.73,530.75,213.88z"/>
<path class="st2" d="M508.71,804.66c11.79,0,21.96,10.37,22.02,22.47c0.06,12.43-9.49,22.01-21.95,22.03
	c-12.57,0.02-22.09-9.44-22.08-21.95C486.7,815.17,496.96,804.66,508.71,804.66z"/>
<path class="st2" d="M742.43,510.38c7.75,0,14.44,6.82,14.47,14.77c0.04,8.17-6.24,14.47-14.43,14.48
	c-8.26,0.01-14.52-6.2-14.52-14.43C727.96,517.3,734.7,510.39,742.43,510.38z"/>
</svg>
